sim/vlt_dump.vcd
$version Generated by VerilatedVcd $end
$timescale 1ps $end
 $scope module TOP $end
  $var wire 1 H clk $end
  $var wire 1 I rst_n $end
  $var wire 1 J in_valid $end
  $var wire 8 K in_byte [7:0] $end
  $var wire 1 L payload_ready $end
  $var wire 1 M decision_valid $end
  $var wire 64 N decision_order_id [63:0] $end
  $var wire 32 P decision_price [31:0] $end
  $var wire 32 Q decision_size [31:0] $end
  $scope module tb_top $end
   $var wire 1 H clk $end
   $var wire 1 I rst_n $end
   $var wire 1 J in_valid $end
   $var wire 8 K in_byte [7:0] $end
   $var wire 1 L payload_ready $end
   $var wire 1 M decision_valid $end
   $var wire 64 N decision_order_id [63:0] $end
   $var wire 32 P decision_price [31:0] $end
   $var wire 32 Q decision_size [31:0] $end
   $var wire 1 # payload_valid $end
   $var wire 8 $ payload_byte [7:0] $end
   $var wire 1 % parser_in_ready $end
   $var wire 1 & parser_msg_valid $end
   $var wire 8 ) parser_msg_type [7:0] $end
   $var wire 64 R parser_order_id [63:0] $end
   $var wire 32 * parser_price [31:0] $end
   $var wire 32 + parser_size [31:0] $end
   $var wire 1 , logic_msg_valid $end
   $var wire 64 - logic_order_id [63:0] $end
   $var wire 32 / logic_price [31:0] $end
   $var wire 32 0 logic_size [31:0] $end
   $var wire 8 1 pip_byte [7:0] $end
   $var wire 1 2 pip_valid $end
   $var wire 1 % pip_ready $end
   $scope module eth_rx_i $end
    $var wire 48 T DEST_MAC [47:0] $end
    $var wire 1 H clk $end
    $var wire 1 I rst_n $end
    $var wire 8 K in_byte [7:0] $end
    $var wire 1 J in_valid $end
    $var wire 8 $ payload_byte [7:0] $end
    $var wire 1 # payload_valid $end
    $var wire 1 L payload_ready $end
    $var wire 3 3 state [2:0] $end
    $var wire 3 ' next_state [2:0] $end
    $var wire 4 4 pre_cnt [3:0] $end
    $var wire 3 5 header_cnt [2:0] $end
    $var wire 48 6 mac_shift [47:0] $end
   $upscope $end
   $scope module logic_i $end
    $var wire 32 V PRICE_THRESHOLD [31:0] $end
    $var wire 1 H clk $end
    $var wire 1 I rst_n $end
    $var wire 8 ) msg_type [7:0] $end
    $var wire 1 & msg_valid $end
    $var wire 64 R order_id [63:0] $end
    $var wire 32 * price [31:0] $end
    $var wire 32 + size [31:0] $end
    $var wire 1 , decision_valid $end
    $var wire 64 - decision_order_id [63:0] $end
    $var wire 32 / decision_price [31:0] $end
    $var wire 32 0 decision_size [31:0] $end
   $upscope $end
   $scope module parser_i $end
    $var wire 1 H clk $end
    $var wire 1 I rst_n $end
    $var wire 8 $ in_byte [7:0] $end
    $var wire 1 # in_valid $end
    $var wire 1 % in_ready $end
    $var wire 8 ) msg_type [7:0] $end
    $var wire 1 & msg_valid $end
    $var wire 64 R order_id [63:0] $end
    $var wire 32 * price [31:0] $end
    $var wire 32 + size [31:0] $end
    $var wire 3 8 state [2:0] $end
    $var wire 3 ( next_state [2:0] $end
    $var wire 3 9 cnt [2:0] $end
   $upscope $end
   $scope module pip_i $end
    $var wire 1 H clk $end
    $var wire 1 I rst_n $end
    $var wire 8 $ s1_byte [7:0] $end
    $var wire 1 # s1_valid $end
    $var wire 1 % s1_ready $end
    $var wire 8 1 s2_byte [7:0] $end
    $var wire 1 2 s2_valid $end
    $var wire 1 % s2_ready $end
    $var wire 32 : ingress_ts [31:0] $end
    $var wire 32 W decision_ts [31:0] $end
    $var wire 8 1 reg_byte [7:0] $end
    $var wire 1 2 reg_valid $end
   $upscope $end
   $scope module uart_i $end
    $var wire 16 X BAUD_DIV [15:0] $end
    $var wire 1 H clk $end
    $var wire 1 I rst_n $end
    $var wire 8 ; data_in [7:0] $end
    $var wire 1 M data_valid $end
    $var wire 1 < data_ready $end
    $var wire 1 = tx_line $end
    $var wire 3 > state [2:0] $end
    $var wire 3 ? next_state [2:0] $end
    $var wire 16 @ baud_cnt [15:0] $end
    $var wire 16 A next_baud_cnt [15:0] $end
    $var wire 3 B bit_idx [2:0] $end
    $var wire 3 C next_bit_idx [2:0] $end
    $var wire 8 D shift_reg [7:0] $end
    $var wire 8 E next_shift_reg [7:0] $end
    $var wire 1 F next_tx_line $end
    $var wire 1 G next_data_ready $end
   $upscope $end
  $upscope $end
 $upscope $end
$enddefinitions $end


#0
0#
b00000000 $
1%
0&
b000 '
b000 (
b00000000 )
b00000000000000000000000000000000 *
b00000000000000000000000000000000 +
0,
b0000000000000000000000000000000000000000000000000000000000000000 -
b00000000000000000000000000000000 /
b00000000000000000000000000000000 0
b00000000 1
02
b000 3
b0000 4
b000 5
b000000000000000000000000000000000000000000000000 6
b000 8
b000 9
b00000000000000000000000000000000 :
b00000000 ;
0<
0=
b000 >
b000 ?
b0000000000000000 @
b0000000000000001 A
b000 B
b000 C
b00000000 D
b00000000 E
1F
1G
0H
0I
0J
b00000000 K
1L
0M
b0000000000000000000000000000000000000000000000000000000000000000 N
b00000000000000000000000000000000 P
b00000000000000000000000000000000 Q
b0000000000000000000000000000000000000000000000000000000000000000 R
b110111101010110110111110111011110000000000000001 T
b00000000000000011000011010100000 V
b00000000000000000000000000000000 W
b0010100010110000 X
#1
1=
1H
#2
0H
#3
1H
#4
0H
#5
1H
#6
0H
#7
1H
#8
0H
#9
1H
#10
0H
#11
1H
#12
0H
#13
1H
#14
0H
#15
1H
#16
0H
#17
1H
#18
0H
#19
1H
#20
0H
1I
#21
1<
b0000000000000001 @
b0000000000000010 A
1H
#22
0H
#23
b0000000000000010 @
b0000000000000011 A
1H
#24
0H
#25
b0000000000000011 @
b0000000000000100 A
1H
#26
0H
#27
b0000000000000100 @
b0000000000000101 A
1H
#28
0H
#29
b0000000000000101 @
b0000000000000110 A
1H
#30
0H
#31
b0000000000000110 @
b0000000000000111 A
1H
#32
0H
#33
b0000000000000111 @
b0000000000001000 A
1H
#34
0H
#35
b0000000000001000 @
b0000000000001001 A
1H
#36
0H
#37
b0000000000001001 @
b0000000000001010 A
1H
#38
0H
#39
b0000000000001010 @
b0000000000001011 A
1H
#40
0H
#41
b0000000000001011 @
b0000000000001100 A
1H
#42
0H
#43
b0000000000001100 @
b0000000000001101 A
1H
#44
0H
#45
b0000000000001101 @
b0000000000001110 A
1H
#46
0H
#47
b0000000000001110 @
b0000000000001111 A
1H
#48
0H
#49
b0000000000001111 @
b0000000000010000 A
1H
#50
0H
#51
b0000000000010000 @
b0000000000010001 A
1H
#52
0H
#53
b0000000000010001 @
b0000000000010010 A
1H
#54
0H
#55
b0000000000010010 @
b0000000000010011 A
1H
#56
0H
#57
b0000000000010011 @
b0000000000010100 A
1H
#58
0H
#59
b0000000000010100 @
b0000000000010101 A
1H
#60
0H
#61
b0000000000010101 @
b0000000000010110 A
1H
#62
0H
#63
b0000000000010110 @
b0000000000010111 A
1H
#64
0H
#65
b0000000000010111 @
b0000000000011000 A
1H
#66
0H
#67
b0000000000011000 @
b0000000000011001 A
1H
#68
0H
#69
b0000000000011001 @
b0000000000011010 A
1H
#70
0H
#71
b0000000000011010 @
b0000000000011011 A
1H
#72
0H
#73
b0000000000011011 @
b0000000000011100 A
1H
#74
0H
#75
b0000000000011100 @
b0000000000011101 A
1H
#76
0H
#77
b0000000000011101 @
b0000000000011110 A
1H
#78
0H
#79
b0000000000011110 @
b0000000000011111 A
1H
#80
0H
#81
b0000000000011111 @
b0000000000100000 A
1H
#82
0H
#83
b0000000000100000 @
b0000000000100001 A
1H
#84
0H
#85
b0000000000100001 @
b0000000000100010 A
1H
#86
0H
#87
b0000000000100010 @
b0000000000100011 A
1H
#88
0H
#89
b0000000000100011 @
b0000000000100100 A
1H
#90
0H
#91
b0000000000100100 @
b0000000000100101 A
1H
#92
0H
#93
b0000000000100101 @
b0000000000100110 A
1H
#94
0H
#95
b0000000000100110 @
b0000000000100111 A
1H
#96
0H
#97
b0000000000100111 @
b0000000000101000 A
1H
#98
0H
#99
b0000000000101000 @
b0000000000101001 A
1H
#100
0H
#101
b0000000000101001 @
b0000000000101010 A
1H
#102
0H
#103
b0000000000101010 @
b0000000000101011 A
1H
#104
0H
#105
b0000000000101011 @
b0000000000101100 A
1H
#106
0H
#107
b0000000000101100 @
b0000000000101101 A
1H
#108
0H
#109
b0000000000101101 @
b0000000000101110 A
1H
#110
0H
#111
b0000000000101110 @
b0000000000101111 A
1H
#112
0H
#113
b0000000000101111 @
b0000000000110000 A
1H
#114
0H
#115
b0000000000110000 @
b0000000000110001 A
1H
#116
0H
#117
b0000000000110001 @
b0000000000110010 A
1H
#118
0H
#119
b0000000000110010 @
b0000000000110011 A
1H
#120
0H
#121
b0000000000110011 @
b0000000000110100 A
1H
#122
0H
#123
b0000000000110100 @
b0000000000110101 A
1H
#124
0H
#125
b0000000000110101 @
b0000000000110110 A
1H
#126
0H
#127
b0000000000110110 @
b0000000000110111 A
1H
#128
0H
#129
b0000000000110111 @
b0000000000111000 A
1H
#130
0H
#131
b0000000000111000 @
b0000000000111001 A
1H
#132
0H
#133
b0000000000111001 @
b0000000000111010 A
1H
#134
0H
#135
b0000000000111010 @
b0000000000111011 A
1H
#136
0H
#137
b0000000000111011 @
b0000000000111100 A
1H
#138
0H
#139
b0000000000111100 @
b0000000000111101 A
1H
#140
0H
#141
b0000000000111101 @
b0000000000111110 A
1H
#142
0H
#143
b0000000000111110 @
b0000000000111111 A
1H
#144
0H
#145
b0000000000111111 @
b0000000001000000 A
1H
#146
0H
#147
b0000000001000000 @
b0000000001000001 A
1H
#148
0H
#149
b0000000001000001 @
b0000000001000010 A
1H
#150
0H
#151
b0000000001000010 @
b0000000001000011 A
1H
#152
0H
#153
b0000000001000011 @
b0000000001000100 A
1H
#154
0H
#155
b0000000001000100 @
b0000000001000101 A
1H
#156
0H
#157
b0000000001000101 @
b0000000001000110 A
1H
#158
0H
#159
b0000000001000110 @
b0000000001000111 A
1H
#160
0H
#161
b0000000001000111 @
b0000000001001000 A
1H
#162
0H
#163
b0000000001001000 @
b0000000001001001 A
1H
#164
0H
#165
b0000000001001001 @
b0000000001001010 A
1H
#166
0H
#167
b0000000001001010 @
b0000000001001011 A
1H
#168
0H
#169
b0000000001001011 @
b0000000001001100 A
1H
#170
0H
#171
b0000000001001100 @
b0000000001001101 A
1H
#172
0H
#173
b0000000001001101 @
b0000000001001110 A
1H
#174
0H
#175
b0000000001001110 @
b0000000001001111 A
1H
#176
0H
#177
b0000000001001111 @
b0000000001010000 A
1H
#178
0H
#179
b0000000001010000 @
b0000000001010001 A
1H
#180
0H
#181
b0000000001010001 @
b0000000001010010 A
1H
#182
0H
#183
b0000000001010010 @
b0000000001010011 A
1H
#184
0H
#185
b0000000001010011 @
b0000000001010100 A
1H
#186
0H
#187
b0000000001010100 @
b0000000001010101 A
1H
#188
0H
#189
b0000000001010101 @
b0000000001010110 A
1H
#190
0H
#191
b0000000001010110 @
b0000000001010111 A
1H
#192
0H
#193
b0000000001010111 @
b0000000001011000 A
1H
#194
0H
#195
b0000000001011000 @
b0000000001011001 A
1H
#196
0H
#197
b0000000001011001 @
b0000000001011010 A
1H
#198
0H
#199
b0000000001011010 @
b0000000001011011 A
1H
#200
0H
#201
b0000000001011011 @
b0000000001011100 A
1H
#202
0H
#203
b0000000001011100 @
b0000000001011101 A
1H
#204
0H
#205
b0000000001011101 @
b0000000001011110 A
1H
#206
0H
#207
b0000000001011110 @
b0000000001011111 A
1H
#208
0H
#209
b0000000001011111 @
b0000000001100000 A
1H
#210
0H
#211
b0000000001100000 @
b0000000001100001 A
1H
#212
0H
#213
b0000000001100001 @
b0000000001100010 A
1H
#214
0H
#215
b0000000001100010 @
b0000000001100011 A
1H
#216
0H
#217
b0000000001100011 @
b0000000001100100 A
1H
#218
0H
#219
b0000000001100100 @
b0000000001100101 A
1H
